…
``` r
get_buildings()
```

    # A tibble: 408 × 6
       filename                         block parcel type  file_number full_path    
       <chr>                            <chr> <chr>  <chr> <chr>       <chr>        
     1 block_01_parcel_04_photo_01.jpeg 01    04     <NA>  1.          /Library/Fra…
     2 block_02_parcel_01_info_01.jpeg  02    01     <NA>  1.          /Library/Fra…
     3 block_02_parcel_05_info_01.jpeg  02    05     <NA>  1.          /Library/Fra…
     4 block_02_parcel_05_map_01.jpeg   02    05     <NA>  1.          /Library/Fra…
     5 block_03_parcel_01_info_01.jpeg  03    01     <NA>  1.          /Library/Fra…
     6 block_03_parcel_01_map_01.jpeg   03    01     <NA>  1.          /Library/Fra…
     7 block_03_parcel_01_photo_01.jpeg 03    01     <NA>  1.          /Library/Fra…
     8 block_03_parcel_02_info_01.jpeg  03    02     <NA>  1.          /Library/Fra…
     9 block_03_parcel_02_map_01.jpeg   03    02     <NA>  1.          /Library/Fra…
    10 block_03_parcel_02_photo_01.jpeg 03    02     <NA>  1.          /Library/Fra…
    # ℹ 398 more rows
